…
The key column in this extract is LANGUAGED (the more detailed
counterpart of LANGUAGE). More info about the variable is available on
[IPUMS-USA](https://usa.ipums.org/usa-action/variables/LANGUAGE).

The codebook provides all the value for every LANGUAGED code.

``` r
info.variables %>% 
  filter(var_name == 'LANGUAGED') %>% 
  `[[`('val_labels')
```

    ## [[1]]
    ## # A tibble: 495 x 2
    ##      val lbl                                 
    ##    <dbl> <chr>                               
    ##  1     0 N/A or blank                        
    ##  2   100 English                             
    ##  3   110 Jamaican Creole                     
    ##  4   120 Krio, Pidgin Krio                   
    ##  5   130 Hawaiian Pidgin                     
    ##  6   140 Pidgin                              
    ##  7   150 Gullah, Geechee                     
    ##  8   160 Saramacca                           
    ##  9   170 Other English-based Creole languages
    ## 10   200 German                              
    ## # … with 485 more rows
…
